[
  -1.0,
  -0.990990990990991,
  -0.990990990990991,
  -0.990990990990991,
  -0.990990990990991,
  -0.990990990990991,
  -0.990990990990991,
  -0.990990990990991,
  -0.990990990990991,
  -0.990990990990991,
  -0.990990990990991,
  -0.990990990990991,
  -0.990990990990991,
  -0.990990990990991,
  -0.990990990990991,
  -0.990990990990991,
  -0.990990990990991,
  -0.990990990990991,
  -0.990990990990991,
  -0.990990990990991,
  -0.990990990990991,
  -0.990990990990991,
  -0.990990990990991,
  -0.990990990990991,
  -0.990990990990991,
  -0.990990990990991,
  -0.990990990990991,
  -0.9819819819819819,
  -0.972972972972973,
  -0.963963963963964,
  -0.954954954954955,
  -0.9459459459459459,
  -0.9369369369369369,
  -0.9279279279279279,
  -0.9189189189189189,
  -0.9099099099099099,
  -0.9009009009009009,
  -0.8918918918918919,
  -0.8828828828828829,
  -0.8738738738738738,
  -0.8648648648648649,
  -0.8558558558558559,
  -0.8468468468468469,
  -0.8378378378378378,
  -0.8288288288288288,
  -0.8198198198198199,
  -0.8108108108108107,
  -0.8018018018018018,
  -0.7927927927927928,
  -0.7837837837837838,
  -0.7747747747747747,
  -0.7657657657657657,
  -0.7567567567567568,
  -0.7477477477477478,
  -0.7387387387387387,
  -0.7297297297297297,
  -0.7207207207207207,
  -0.7117117117117118,
  -0.7027027027027026,
  -0.6936936936936937,
  -0.6846846846846847,
  -0.6756756756756757,
  -0.6666666666666667,
  -0.6576576576576576,
  -0.6486486486486487,
  -0.6396396396396397,
  -0.6306306306306306,
  -0.6216216216216216,
  -0.6126126126126126,
  -0.6036036036036037,
  -0.5945945945945945,
  -0.5855855855855856,
  -0.5765765765765766,
  -0.5675675675675675,
  -0.5585585585585586,
  -0.5495495495495495,
  -0.5405405405405406,
  -0.5315315315315315,
  -0.5225225225225225,
  -0.5135135135135135,
  -0.5045045045045045,
  -0.49549549549549554,
  -0.4864864864864865,
  -0.4774774774774775,
  -0.46846846846846846,
  -0.45945945945945943,
  -0.4504504504504504,
  -0.4414414414414415,
  -0.43243243243243246,
  -0.42342342342342343,
  -0.4144144144144144,
  -0.4054054054054054,
  -0.39639639639639634,
  -0.3873873873873874,
  -0.3783783783783784,
  -0.36936936936936937,
  -0.36036036036036034,
  -0.3513513513513513,
  -0.3423423423423423,
  -0.33333333333333337,
  -0.32432432432432434,
  -0.3153153153153153,
  -0.3063063063063063,
  -0.29729729729729726,
  -0.28828828828828834,
  -0.2792792792792793,
  -0.2702702702702703,
  -0.26126126126126126,
  -0.25225225225225223,
  -0.2432432432432432,
  -0.23423423423423428,
  -0.22522522522522526,
  -0.21621621621621623,
  -0.2072072072072072,
  -0.19819819819819817,
  -0.18918918918918914,
  -0.18018018018018023,
  -0.1711711711711712,
  -0.1711711711711712,
  -0.1711711711711712,
  -0.1711711711711712,
  -0.1711711711711712,
  -0.1711711711711712,
  -0.1711711711711712,
  -0.1711711711711712,
  -0.1711711711711712,
  -0.1711711711711712,
  -0.1711711711711712,
  -0.1711711711711712,
  -0.1711711711711712,
  -0.1711711711711712,
  -0.1711711711711712,
  -0.1711711711711712,
  -0.1711711711711712,
  -0.1711711711711712,
  -0.1711711711711712,
  -0.1711711711711712,
  -0.1711711711711712,
  -0.1711711711711712,
  -0.1711711711711712,
  -0.1711711711711712,
  -0.1711711711711712,
  -0.1711711711711712,
  -0.1711711711711712,
  -0.1711711711711712,
  -0.1711711711711712,
  -0.1711711711711712,
  -0.1711711711711712,
  -0.1711711711711712,
  -0.1711711711711712,
  -0.1711711711711712,
  -0.1711711711711712,
  -0.1711711711711712,
  -0.1711711711711712,
  -0.1711711711711712,
  -0.16216216216216217,
  -0.1711711711711712,
  -0.18018018018018023,
  -0.18918918918918914,
  -0.19819819819819817,
  -0.19819819819819817,
  -0.2072072072072072,
  -0.21621621621621623,
  -0.22522522522522526,
  -0.23423423423423428,
  -0.2432432432432432,
  -0.23423423423423428,
  -0.22522522522522526,
  -0.21621621621621623,
  -0.2072072072072072,
  -0.19819819819819817,
  -0.18918918918918914,
  -0.18018018018018023,
  -0.18918918918918914,
  -0.19819819819819817,
  -0.2072072072072072,
  -0.2072072072072072,
  -0.21621621621621623,
  -0.22522522522522526,
  -0.23423423423423428,
  -0.2432432432432432,
  -0.2432432432432432,
  -0.25225225225225223,
  -0.26126126126126126,
  -0.2702702702702703,
  -0.2792792792792793,
  -0.28828828828828834,
  -0.29729729729729726,
  -0.3063063063063063,
  -0.3153153153153153,
  -0.32432432432432434,
  -0.33333333333333337,
  -0.33333333333333337,
  -0.3423423423423423,
  -0.3513513513513513,
  -0.36036036036036034,
  -0.36936936936936937,
  -0.3783783783783784,
  -0.3873873873873874,
  -0.39639639639639634,
  -0.39639639639639634,
  -0.4054054054054054,
  -0.4144144144144144,
  -0.4144144144144144,
  -0.42342342342342343,
  -0.43243243243243246,
  -0.4414414414414415,
  -0.43243243243243246,
  -0.42342342342342343,
  -0.4144144144144144,
  -0.4144144144144144,
  -0.4054054054054054,
  -0.39639639639639634,
  -0.39639639639639634,
  -0.3873873873873874,
  -0.3783783783783784,
  -0.36936936936936937,
  -0.36036036036036034,
  -0.3513513513513513,
  -0.3423423423423423,
  -0.33333333333333337,
  -0.33333333333333337,
  -0.32432432432432434,
  -0.3153153153153153,
  -0.3063063063063063,
  -0.29729729729729726,
  -0.28828828828828834,
  -0.2792792792792793,
  -0.2702702702702703,
  -0.26126126126126126,
  -0.25225225225225223,
  -0.2432432432432432,
  -0.2432432432432432,
  -0.23423423423423428,
  -0.22522522522522526,
  -0.21621621621621623,
  -0.2072072072072072,
  -0.2072072072072072,
  -0.19819819819819817,
  -0.18918918918918914,
  -0.18018018018018023,
  -0.18018018018018023,
  -0.1711711711711712,
  -0.16216216216216217,
  -0.15315315315315314,
  -0.14414414414414412,
  -0.1351351351351351,
  -0.12612612612612617,
  -0.12612612612612617,
  -0.11711711711711714,
  -0.10810810810810811,
  -0.09909909909909909,
  -0.09009009009009006,
  -0.09009009009009006,
  -0.08108108108108103,
  -0.07207207207207211,
  -0.06306306306306309,
  -0.05405405405405406,
  -0.04504504504504503,
  -0.036036036036036,
  -0.027027027027026973,
  -0.018018018018018056,
  -0.009009009009009028,
  0.0,
  0.009009009009008917,
  0.018018018018018056,
  0.027027027027026973,
  0.03603603603603611,
  0.04504504504504503,
  0.054054054054053946,
  0.06306306306306309,
  0.072072072072072,
  0.08108108108108114,
  0.09009009009009006,
  0.0990990990990992,
  0.10810810810810811,
  0.11711711711711703,
  0.12612612612612617,
  0.1351351351351351,
  0.14414414414414423,
  0.15315315315315314,
  0.16216216216216206,
  0.1711711711711712,
  0.18018018018018012,
  0.18918918918918926,
  0.18018018018018012,
  0.1711711711711712,
  0.16216216216216206,
  0.15315315315315314,
  0.14414414414414423,
  0.1351351351351351,
  0.12612612612612617,
  0.11711711711711703,
  0.10810810810810811,
  0.0990990990990992,
  0.09009009009009006,
  0.08108108108108114,
  0.072072072072072,
  0.06306306306306309,
  0.054054054054053946,
  0.04504504504504503,
  0.03603603603603611,
  0.027027027027026973,
  0.018018018018018056,
  0.009009009009008917,
  0.0,
  -0.009009009009009028,
  -0.018018018018018056,
  -0.027027027027026973,
  -0.036036036036036,
  -0.04504504504504503,
  -0.05405405405405406,
  -0.06306306306306309,
  -0.07207207207207211,
  -0.08108108108108103,
  -0.09009009009009006,
  -0.09909909909909909,
  -0.09909909909909909,
  -0.09009009009009006,
  -0.08108108108108103,
  -0.07207207207207211,
  -0.06306306306306309,
  -0.05405405405405406,
  -0.04504504504504503,
  -0.036036036036036,
  -0.027027027027026973,
  -0.027027027027026973,
  -0.018018018018018056,
  -0.009009009009009028,
  0.0,
  0.009009009009008917,
  0.018018018018018056,
  0.027027027027026973,
  0.027027027027026973,
  0.03603603603603611,
  0.04504504504504503,
  0.054054054054053946,
  0.06306306306306309,
  0.072072072072072,
  0.08108108108108114,
  0.09009009009009006,
  0.09009009009009006,
  0.0990990990990992,
  0.0990990990990992,
  0.0990990990990992,
  0.10810810810810811,
  0.10810810810810811,
  0.10810810810810811,
  0.10810810810810811,
  0.10810810810810811,
  0.10810810810810811,
  0.10810810810810811,
  0.11711711711711703,
  0.12612612612612617,
  0.12612612612612617,
  0.1351351351351351,
  0.1351351351351351,
  0.1351351351351351,
  0.14414414414414423,
  0.14414414414414423,
  0.14414414414414423,
  0.15315315315315314,
  0.15315315315315314,
  0.15315315315315314,
  0.16216216216216206,
  0.16216216216216206,
  0.1711711711711712,
  0.18018018018018012,
  0.18918918918918926,
  0.19819819819819817,
  0.2072072072072073,
  0.21621621621621623,
  0.22522522522522515,
  0.23423423423423428,
  0.2432432432432432,
  0.25225225225225234,
  0.26126126126126126,
  0.2702702702702702,
  0.2792792792792793,
  0.28828828828828823,
  0.29729729729729737,
  0.3063063063063063,
  0.3153153153153154,
  0.32432432432432434,
  0.33333333333333326,
  0.3423423423423424,
  0.3513513513513513,
  0.36036036036036045,
  0.36936936936936937,
  0.3783783783783783,
  0.3873873873873874,
  0.39639639639639634,
  0.4054054054054055,
  0.4144144144144144,
  0.4234234234234233,
  0.43243243243243246,
  0.4414414414414414,
  0.4504504504504505,
  0.45945945945945943,
  0.46846846846846857,
  0.4774774774774775,
  0.4864864864864864,
  0.49549549549549554,
  0.5045045045045045,
  0.5135135135135136,
  0.5225225225225225,
  0.5315315315315314,
  0.5405405405405406,
  0.5495495495495495,
  0.5585585585585586,
  0.5675675675675675,
  0.5765765765765767,
  0.5855855855855856,
  0.5945945945945945,
  0.6036036036036037,
  0.6126126126126126,
  0.6216216216216217,
  0.6306306306306306,
  0.6396396396396395,
  0.6486486486486487,
  0.6576576576576576,
  0.6666666666666667,
  0.6756756756756757,
  0.6846846846846846,
  0.6936936936936937,
  0.7027027027027026,
  0.7117117117117118,
  0.7207207207207207,
  0.7297297297297298,
  0.7387387387387387,
  0.7477477477477477,
  0.7567567567567568,
  0.7657657657657657,
  0.7747747747747749,
  0.7837837837837838,
  0.7927927927927927,
  0.8018018018018018,
  0.8108108108108107,
  0.8198198198198199,
  0.8288288288288288,
  0.8378378378378379,
  0.8468468468468469,
  0.8558558558558558,
  0.8648648648648649,
  0.8738738738738738,
  0.882882882882883,
  0.8918918918918919,
  0.9009009009009008,
  0.9099099099099099,
  0.9189189189189189,
  0.927927927927928,
  0.927927927927928,
  0.9369369369369369,
  0.945945945945946,
  0.954954954954955,
  0.954954954954955,
  0.954954954954955,
  0.954954954954955,
  0.954954954954955,
  0.9639639639639639,
  0.9639639639639639,
  0.9639639639639639,
  0.9639639639639639,
  0.954954954954955,
  0.954954954954955,
  0.954954954954955,
  0.945945945945946,
  0.945945945945946,
  0.9369369369369369,
  0.9369369369369369,
  0.927927927927928,
  0.927927927927928,
  0.9189189189189189,
  0.9099099099099099,
  0.9009009009009008,
  0.8918918918918919,
  0.882882882882883,
  0.8738738738738738,
  0.8648648648648649,
  0.8558558558558558,
  0.8468468468468469,
  0.8378378378378379,
  0.8288288288288288,
  0.8198198198198199,
  0.8108108108108107,
  0.8018018018018018,
  0.7927927927927927,
  0.7837837837837838,
  0.7747747747747749,
  0.7657657657657657,
  0.7567567567567568,
  0.7657657657657657,
  0.7567567567567568,
  0.7477477477477477,
  0.7387387387387387,
  0.7297297297297298,
  0.7207207207207207,
  0.7117117117117118,
  0.7027027027027026,
  0.6936936936936937,
  0.6846846846846846,
  0.6756756756756757,
  0.6666666666666667,
  0.6576576576576576,
  0.6486486486486487,
  0.6396396396396395,
  0.6306306306306306,
  0.6216216216216217,
  0.6126126126126126,
  0.6036036036036037,
  0.5945945945945945,
  0.5855855855855856,
  0.5765765765765767,
  0.5675675675675675,
  0.5585585585585586,
  0.5495495495495495,
  0.5405405405405406,
  0.5315315315315314,
  0.5225225225225225,
  0.5135135135135136,
  0.5045045045045045,
  0.49549549549549554,
  0.4864864864864864,
  0.4774774774774775,
  0.46846846846846857,
  0.45945945945945943,
  0.45945945945945943,
  0.45945945945945943,
  0.45945945945945943,
  0.45945945945945943,
  0.45945945945945943,
  0.45945945945945943,
  0.45945945945945943,
  0.45945945945945943,
  0.46846846846846857,
  0.45945945945945943,
  0.45945945945945943,
  0.45945945945945943,
  0.45945945945945943,
  0.45945945945945943,
  0.45945945945945943,
  0.45945945945945943,
  0.45945945945945943,
  0.45945945945945943,
  0.45945945945945943,
  0.45945945945945943,
  0.45945945945945943,
  0.45945945945945943,
  0.45945945945945943,
  0.45945945945945943,
  0.46846846846846857,
  0.46846846846846857,
  0.46846846846846857,
  0.46846846846846857,
  0.46846846846846857,
  0.46846846846846857,
  0.46846846846846857,
  0.46846846846846857,
  0.45945945945945943,
  0.45945945945945943,
  0.45945945945945943,
  0.45945945945945943,
  0.4504504504504505,
  0.4414414414414414,
  0.43243243243243246,
  0.4234234234234233,
  0.4144144144144144,
  0.4054054054054055,
  0.39639639639639634,
  0.3873873873873874,
  0.3783783783783783,
  0.36936936936936937,
  0.36036036036036045,
  0.3513513513513513,
  0.3423423423423424,
  0.33333333333333326,
  0.32432432432432434,
  0.3153153153153154,
  0.3063063063063063,
  0.29729729729729737,
  0.28828828828828823,
  0.2792792792792793,
  0.2702702702702702,
  0.26126126126126126,
  0.25225225225225234,
  0.2432432432432432,
  0.23423423423423428,
  0.22522522522522515,
  0.21621621621621623,
  0.21621621621621623,
  0.21621621621621623,
  0.21621621621621623,
  0.21621621621621623,
  0.22522522522522515,
  0.23423423423423428,
  0.2432432432432432,
  0.25225225225225234,
  0.26126126126126126,
  0.2702702702702702,
  0.2702702702702702,
  0.2792792792792793,
  0.2792792792792793,
  0.2702702702702702,
  0.2702702702702702,
  0.2702702702702702,
  0.2792792792792793,
  0.2792792792792793,
  0.2702702702702702,
  0.2702702702702702,
  0.2702702702702702,
  0.26126126126126126,
  0.25225225225225234,
  0.25225225225225234,
  0.26126126126126126,
  0.25225225225225234,
  0.25225225225225234,
  0.2432432432432432,
  0.23423423423423428,
  0.22522522522522515,
  0.21621621621621623,
  0.2072072072072073,
  0.19819819819819817,
  0.18918918918918926,
  0.18018018018018012,
  0.1711711711711712,
  0.16216216216216206,
  0.15315315315315314,
  0.14414414414414423,
  0.1351351351351351,
  0.12612612612612617,
  0.12612612612612617,
  0.11711711711711703,
  0.11711711711711703,
  0.11711711711711703,
  0.11711711711711703,
  0.11711711711711703,
  0.12612612612612617,
  0.1351351351351351,
  0.14414414414414423,
  0.15315315315315314,
  0.16216216216216206,
  0.1711711711711712,
  0.18018018018018012,
  0.18918918918918926,
  0.19819819819819817,
  0.2072072072072073,
  0.21621621621621623,
  0.22522522522522515,
  0.23423423423423428,
  0.2432432432432432,
  0.23423423423423428,
  0.22522522522522515,
  0.21621621621621623,
  0.2072072072072073,
  0.19819819819819817,
  0.18918918918918926,
  0.18018018018018012,
  0.18018018018018012,
  0.1711711711711712,
  0.16216216216216206,
  0.15315315315315314,
  0.14414414414414423,
  0.1351351351351351,
  0.12612612612612617,
  0.11711711711711703,
  0.10810810810810811,
  0.0990990990990992,
  0.09009009009009006,
  0.08108108108108114,
  0.072072072072072,
  0.06306306306306309,
  0.054054054054053946,
  0.04504504504504503,
  0.03603603603603611,
  0.027027027027026973,
  0.018018018018018056,
  0.009009009009008917,
  0.0,
  -0.009009009009009028,
  -0.018018018018018056,
  -0.027027027027026973,
  -0.036036036036036,
  -0.04504504504504503,
  -0.05405405405405406,
  -0.06306306306306309,
  -0.07207207207207211,
  -0.08108108108108103,
  -0.09009009009009006,
  -0.09909909909909909,
  -0.10810810810810811,
  -0.11711711711711714,
  -0.12612612612612617,
  -0.1351351351351351,
  -0.14414414414414412,
  -0.15315315315315314,
  -0.16216216216216217,
  -0.1711711711711712,
  -0.18018018018018023,
  -0.18918918918918914,
  -0.19819819819819817,
  -0.2072072072072072,
  -0.21621621621621623,
  -0.22522522522522526,
  -0.23423423423423428,
  -0.2432432432432432,
  -0.25225225225225223,
  -0.26126126126126126,
  -0.2702702702702703,
  -0.2792792792792793,
  -0.28828828828828834,
  -0.29729729729729726,
  -0.3063063063063063,
  -0.3153153153153153,
  -0.32432432432432434,
  -0.33333333333333337,
  -0.3423423423423423,
  -0.3513513513513513,
  -0.36036036036036034,
  -0.36936936936936937,
  -0.3783783783783784,
  -0.3873873873873874,
  -0.39639639639639634,
  -0.4054054054054054,
  -0.4144144144144144,
  -0.42342342342342343,
  -0.43243243243243246,
  -0.4414414414414415,
  -0.4504504504504504,
  -0.45945945945945943,
  -0.46846846846846846,
  -0.4774774774774775,
  -0.4864864864864865,
  -0.49549549549549554,
  -0.5045045045045045,
  -0.5135135135135135,
  -0.5225225225225225,
  -0.5315315315315315,
  -0.5405405405405406,
  -0.5495495495495495,
  -0.5585585585585586,
  -0.5675675675675675,
  -0.5765765765765766,
  -0.5855855855855856,
  -0.5945945945945945,
  -0.6036036036036037,
  -0.6126126126126126,
  -0.6216216216216216,
  -0.6306306306306306,
  -0.6396396396396397,
  -0.6486486486486487,
  -0.6576576576576576,
  -0.6666666666666667,
  -0.6756756756756757,
  -0.6846846846846847,
  -0.6936936936936937,
  -0.7027027027027026,
  -0.7117117117117118,
  -0.7207207207207207,
  -0.7297297297297297,
  -0.7387387387387387,
  -0.7477477477477478,
  -0.7567567567567568,
  -0.7657657657657657,
  -0.7747747747747747,
  -0.7837837837837838,
  -0.7927927927927928,
  -0.8018018018018018,
  -0.8108108108108107,
  -0.8198198198198199,
  -0.8288288288288288,
  -0.8378378378378378,
  -0.8468468468468469,
  -0.8558558558558559,
  -0.8648648648648649,
  -0.8738738738738738,
  -0.8828828828828829,
  -0.8918918918918919,
  -0.9009009009009009,
  -0.9099099099099099,
  -0.9189189189189189,
  -0.9279279279279279,
  -0.9369369369369369,
  -0.9459459459459459,
  -0.954954954954955,
  -0.963963963963964,
  -0.972972972972973,
  -0.9819819819819819,
  -0.990990990990991,
  -1.0,
  -1.0,
  -1.0,
  -1.0,
  -1.0,
  -1.0,
  -1.0,
  -1.0,
  -1.0,
  -1.0,
  -1.0,
  -1.0,
  -1.0,
  -1.0,
  -1.0,
  -1.0,
  -1.0,
  -1.0,
  -1.0,
  -1.0,
  -1.0,
  -1.0,
  -1.0,
  -1.0,
  -1.0,
  -1.0,
  -1.0,
  -1.0,
  -1.0,
  -1.0,
  -1.0,
  -1.0,
  -1.0,
  -1.0,
  -1.0,
  -1.0,
  -1.0,
  -1.0,
  -1.0,
  -1.0,
  -1.0,
  -1.0,
  -1.0,
  -1.0,
  -1.0,
  -1.0,
  -1.0,
  -1.0,
  -1.0,
  -1.0,
  -1.0,
  -1.0,
  -1.0,
  -1.0,
  -1.0,
  -1.0,
  -1.0,
  -1.0,
  -1.0,
  -1.0,
  -1.0,
  -1.0,
  -1.0,
  -1.0,
  -1.0,
  -1.0,
  -1.0,
  -1.0,
  -1.0,
  -1.0,
  -1.0,
  -1.0,
  -1.0,
  -1.0,
  -1.0,
  -1.0,
  -1.0,
  -1.0,
  -1.0,
  -1.0,
  -1.0,
  -0.990990990990991,
  -0.990990990990991,
  -0.990990990990991,
  -1.0,
  -1.0,
  -1.0,
  -1.0,
  -1.0,
  -0.990990990990991,
  -0.990990990990991,
  -0.990990990990991,
  -0.990990990990991,
  -0.990990990990991,
  -0.990990990990991,
  -0.990990990990991,
  -0.990990990990991,
  -0.990990990990991,
  -0.990990990990991
]